{
  "template": "cmake",
  "kill": "qmlscene",
  "dependencies_ppa": [
  ],
  "dependencies_target": [
      "gstreamer1.0-fluendo-mp3",
      "gstreamer1.0-libav",
      "gstreamer1.0-plugins-bad",
      "gstreamer1.0-plugins-ugly",
      "gstreamer1.0-plugins-bad-videoparsers",
      "gstreamer1.0*"
  ]  
}
